#FIG 3.2  Produced by xfig version 3.2.5c
Landscape
Center
Metric
A4      
100.00
Single
-2
1200 2
2 4 0 1 7 7 53 -1 20 0.000 0 0 7 0 0 5
	 4005 675 405 675 405 1440 4005 1440 4005 675
2 5 0 1 0 -1 53 -1 -1 0.000 0 0 -1 0 0 5
	0 logo_coecss.gif
	 450 695 3979 695 3979 1395 450 1395 450 695
